Waveforms.vcd
$date
	Wed Aug 02 22:15:36 2023
$end
$version
	Icarus Verilog
$end
$timescale
	1s
$end
$scope module test $end
$var wire 8 ! out [7:0] $end
$var reg 1 " clk $end
$var reg 8 # d [7:0] $end
$var reg 1 $ enable $end
$var reg 1 % load $end
$var reg 1 & reset $end
$var reg 8 ' temp [7:0] $end
$scope module dut $end
$var wire 1 " clk $end
$var wire 8 ( d [7:0] $end
$var wire 1 $ enable $end
$var wire 1 % load $end
$var wire 1 & reset $end
$var wire 8 ) w [7:0] $end
$var wire 8 * q [7:0] $end
$var wire 8 + c [7:0] $end
$var wire 8 , a [7:0] $end
$scope module d0 $end
$var wire 1 " clk $end
$var wire 1 - d $end
$var wire 1 & reset $end
$var reg 1 . q $end
$upscope $end
$scope module d1 $end
$var wire 1 " clk $end
$var wire 1 / d $end
$var wire 1 & reset $end
$var reg 1 0 q $end
$upscope $end
$scope module d2 $end
$var wire 1 " clk $end
$var wire 1 1 d $end
$var wire 1 & reset $end
$var reg 1 2 q $end
$upscope $end
$scope module d3 $end
$var wire 1 " clk $end
$var wire 1 3 d $end
$var wire 1 & reset $end
$var reg 1 4 q $end
$upscope $end
$scope module d4 $end
$var wire 1 " clk $end
$var wire 1 5 d $end
$var wire 1 & reset $end
$var reg 1 6 q $end
$upscope $end
$scope module d5 $end
$var wire 1 " clk $end
$var wire 1 7 d $end
$var wire 1 & reset $end
$var reg 1 8 q $end
$upscope $end
$scope module d6 $end
$var wire 1 " clk $end
$var wire 1 9 d $end
$var wire 1 & reset $end
$var reg 1 : q $end
$upscope $end
$scope module d7 $end
$var wire 1 " clk $end
$var wire 1 ; d $end
$var wire 1 & reset $end
$var reg 1 < q $end
$upscope $end
$scope module m0 $end
$var wire 1 = a $end
$var wire 1 > b $end
$var wire 1 % s $end
$var wire 1 ? y $end
$upscope $end
$scope module m1 $end
$var wire 1 @ a $end
$var wire 1 A b $end
$var wire 1 % s $end
$var wire 1 B y $end
$upscope $end
$scope module m2 $end
$var wire 1 C a $end
$var wire 1 D b $end
$var wire 1 % s $end
$var wire 1 E y $end
$upscope $end
$scope module m3 $end
$var wire 1 F a $end
$var wire 1 G b $end
$var wire 1 % s $end
$var wire 1 H y $end
$upscope $end
$scope module m4 $end
$var wire 1 I a $end
$var wire 1 J b $end
$var wire 1 % s $end
$var wire 1 K y $end
$upscope $end
$scope module m5 $end
$var wire 1 L a $end
$var wire 1 M b $end
$var wire 1 % s $end
$var wire 1 N y $end
$upscope $end
$scope module m6 $end
$var wire 1 O a $end
$var wire 1 P b $end
$var wire 1 % s $end
$var wire 1 Q y $end
$upscope $end
$scope module m7 $end
$var wire 1 R a $end
$var wire 1 S b $end
$var wire 1 % s $end
$var wire 1 T y $end
$upscope $end
$upscope $end
$upscope $end
$enddefinitions $end
$comment Show the parameter values. $end
$dumpall
$end
#50
$dumpvars
0T
1S
0R
0Q
0P
0O
0N
1M
0L
0K
0J
0I
0H
0G
0F
0E
0D
0C
0B
0A
0@
0?
0>
0=
0<
0;
0:
09
08
07
06
05
04
03
02
01
00
0/
0.
0-
b0 ,
b0 +
b0 *
bz0000000 )
b10100000 (
b0 '
1&
0%
0$
b10100000 #
0"
b0 !
$end
#55
1"
#60
0"
1&
#65
1"
#70
0"
1&
#75
1"
#80
0"
1&
#85
1"
#90
0"
1&
#95
1"
#100
0"
1&
#105
1"
#110
0"
1&
#115
1"
#120
0"
1&
#125
1"
#130
0"
1&
#135
1"
#140
0"
1&
#145
1"
#150
17
1;
1N
b10100000 +
1T
0"
1%
0&
#155
1R
1L
b10100000 ,
1<
b10100000 !
b10100000 *
18
1"
#160
0"
1%
#165
1"
#170
0"
1%
#175
1"
#180
0"
1%
#185
1"
#190
0"
1%
#195
1"
#200
1-
1?
17
1;
1=
1N
b10100001 +
1T
b10100001 ,
0"
1$
b10100000 '
0%
#205
1/
1B
0-
1@
b10100010 +
0?
0=
bz0000001 )
b10100010 ,
b10100001 !
b10100001 *
1.
1"
#210
0"
1$
b10100001 '
#215
01
0E
1/
1-
0C
1B
b10100011 +
1?
1@
1=
bz0000000 )
b10100011 ,
10
b10100010 !
b10100010 *
0.
1"
#220
0"
1$
b10100010 '
#225
11
1E
0/
1C
0B
0-
0@
b10100100 +
0?
0=
bz0000011 )
b10100100 ,
b10100011 !
b10100011 *
1.
1"
#230
0"
1$
b10100011 '
#235
03
0H
11
0/
1-
0F
1E
0B
b10100101 +
1?
1C
0@
1=
bz0000000 )
b10100101 ,
12
00
b10100100 !
b10100100 *
0.
1"
#240
0"
1$
b10100100 '
#245
1/
1B
0-
1@
b10100110 +
0?
0=
bz0000001 )
b10100110 ,
b10100101 !
b10100101 *
1.
1"
#250
0"
1$
b10100101 '
#255
03
0H
11
0F
1E
1/
1-
1C
1B
b10100111 +
1?
1@
1=
bz0000000 )
b10100111 ,
10
b10100110 !
b10100110 *
0.
1"
#260
0"
1$
b10100110 '
#265
13
1H
01
1F
0E
0/
0C
0B
0-
0@
b10101000 +
0?
0=
bz0000111 )
b10101000 ,
b10100111 !
b10100111 *
1.
1"
#270
0"
1$
b10100111 '
#275
05
0K
13
01
0/
1-
0I
1H
0E
0B
b10101001 +
1?
1F
0C
0@
1=
bz0000000 )
b10101001 ,
14
02
00
b10101000 !
b10101000 *
0.
1"
#280
0"
1$
b10101000 '
#285
1/
1B
0-
1@
b10101010 +
0?
0=
bz0000001 )
b10101010 ,
b10101001 !
b10101001 *
1.
1"
#290
0"
1$
b10101001 '
#295
01
0E
1/
1-
0C
1B
b10101011 +
1?
1@
1=
bz0000000 )
b10101011 ,
10
b10101010 !
b10101010 *
0.
1"
#300
0"
1$
b10101010 '
#305
11
1E
0/
1C
0B
0-
0@
b10101100 +
0?
0=
bz0000011 )
b10101100 ,
b10101011 !
b10101011 *
1.
1"
#310
0"
1$
b10101011 '
#315
05
0K
13
0I
1H
11
0/
1-
1F
1E
0B
b10101101 +
1?
1C
0@
1=
bz0000000 )
b10101101 ,
12
00
b10101100 !
b10101100 *
0.
1"
#320
0"
1$
b10101100 '
#325
1/
1B
0-
1@
b10101110 +
0?
0=
bz0000001 )
b10101110 ,
b10101101 !
b10101101 *
1.
1"
#330
0"
1$
b10101101 '
#335
05
0K
13
0I
1H
11
1F
1E
1/
1-
1C
1B
b10101111 +
1?
1@
1=
bz0000000 )
b10101111 ,
10
b10101110 !
b10101110 *
0.
1"
#340
0"
1$
b10101110 '
#345
15
1K
03
1I
0H
01
0F
0E
0/
0C
0B
0-
0@
b10110000 +
0?
0=
bz0001111 )
b10110000 ,
b10101111 !
b10101111 *
1.
1"
#350
0"
1$
b10101111 '
#355
09
0Q
17
0O
1N
15
03
01
0/
1-
1L
1K
0H
0E
0B
b10110001 +
1?
1I
0F
0C
0@
1=
bz0000000 )
b10110001 ,
16
04
02
00
b10110000 !
b10110000 *
0.
1"
#360
0"
1$
b10110000 '
#365
1/
1B
0-
1@
b10110010 +
0?
0=
bz0000001 )
b10110010 ,
b10110001 !
b10110001 *
1.
1"
#370
0"
1$
b10110001 '
#375
01
0E
1/
1-
0C
1B
b10110011 +
1?
1@
1=
bz0000000 )
b10110011 ,
10
b10110010 !
b10110010 *
0.
1"
#380
0"
1$
b10110010 '
#385
11
1E
0/
1C
0B
0-
0@
b10110100 +
0?
0=
bz0000011 )
b10110100 ,
b10110011 !
b10110011 *
1.
1"
#390
0"
1$
b10110011 '
#395
03
0H
11
0/
1-
0F
1E
0B
b10110101 +
1?
1C
0@
1=
bz0000000 )
b10110101 ,
12
00
b10110100 !
b10110100 *
0.
1"
#400
0"
1$
b10110100 '
#405
1/
1B
0-
1@
b10110110 +
0?
0=
bz0000001 )
b10110110 ,
b10110101 !
b10110101 *
1.
1"
#410
0"
1$
b10110101 '
#415
03
0H
11
0F
1E
1/
1-
1C
1B
b10110111 +
1?
1@
1=
bz0000000 )
b10110111 ,
10
b10110110 !
b10110110 *
0.
1"
#420
0"
1$
b10110110 '
#425
13
1H
01
1F
0E
0/
0C
0B
0-
0@
b10111000 +
0?
0=
bz0000111 )
b10111000 ,
b10110111 !
b10110111 *
1.
1"
#430
0"
1$
b10110111 '
#435
09
0Q
17
0O
1N
15
1L
1K
13
01
0/
1-
1I
1H
0E
0B
b10111001 +
1?
1F
0C
0@
1=
bz0000000 )
b10111001 ,
14
02
00
b10111000 !
b10111000 *
0.
1"
#440
0"
1$
b10111000 '
#445
1/
1B
0-
1@
b10111010 +
0?
0=
bz0000001 )
b10111010 ,
b10111001 !
b10111001 *
1.
1"
#450
0"
1$
b10111001 '
#455
01
0E
1/
1-
0C
1B
b10111011 +
1?
1@
1=
bz0000000 )
b10111011 ,
10
b10111010 !
b10111010 *
0.
1"
#460
0"
1$
b10111010 '
#465
11
1E
0/
1C
0B
0-
0@
b10111100 +
0?
0=
bz0000011 )
b10111100 ,
b10111011 !
b10111011 *
1.
1"
#470
0"
1$
b10111011 '
#475
09
0Q
17
0O
1N
15
1L
1K
13
1I
1H
11
0/
1-
1F
1E
0B
b10111101 +
1?
1C
0@
1=
bz0000000 )
b10111101 ,
12
00
b10111100 !
b10111100 *
0.
1"
#480
0"
1$
b10111100 '
#485
1/
1B
0-
1@
b10111110 +
0?
0=
bz0000001 )
b10111110 ,
b10111101 !
b10111101 *
1.
1"
#490
0"
1$
b10111101 '
#495
09
0Q
17
0O
1N
15
1L
1K
13
1I
1H
11
1F
1E
1/
1-
1C
1B
b10111111 +
1?
1@
1=
bz0000000 )
b10111111 ,
10
b10111110 !
b10111110 *
0.
1"
#500
0"
1$
b10111110 '
#505
19
1Q
07
1O
0N
05
0L
0K
03
0I
0H
01
0F
0E
0/
0C
0B
0-
0@
b11000000 +
0?
0=
bz0111111 )
b11000000 ,
b10111111 !
b10111111 *
1.
1"
#510
0"
1$
b10111111 '
#515
1;
1T
19
07
05
03
01
0/
1-
1R
1Q
0N
0K
0H
0E
0B
b11000001 +
1?
1O
0L
0I
0F
0C
0@
1=
bz0000000 )
b11000001 ,
1:
08
06
04
02
00
b11000000 !
b11000000 *
0.
1"
#520
0"
1$
b11000000 '
#525
1/
1B
0-
1@
b11000010 +
0?
0=
bz0000001 )
b11000010 ,
b11000001 !
b11000001 *
1.
1"
#530
0"
1$
b11000001 '
#535
01
0E
1/
1-
0C
1B
b11000011 +
1?
1@
1=
bz0000000 )
b11000011 ,
10
b11000010 !
b11000010 *
0.
1"
#540
0"
1$
b11000010 '
#545
11
1E
0/
1C
0B
0-
0@
b11000100 +
0?
0=
bz0000011 )
b11000100 ,
b11000011 !
b11000011 *
1.
1"
#550
0"
1$
b11000011 '
#555
03
0H
11
0/
1-
0F
1E
0B
b11000101 +
1?
1C
0@
1=
bz0000000 )
b11000101 ,
12
00
b11000100 !
b11000100 *
0.
1"
#560
0"
1$
b11000100 '
#565
1/
1B
0-
1@
b11000110 +
0?
0=
bz0000001 )
b11000110 ,
b11000101 !
b11000101 *
1.
1"
#570
0"
1$
b11000101 '
#575
03
0H
11
0F
1E
1/
1-
1C
1B
b11000111 +
1?
1@
1=
bz0000000 )
b11000111 ,
10
b11000110 !
b11000110 *
0.
1"
#580
0"
1$
b11000110 '
#585
13
1H
01
1F
0E
0/
0C
0B
0-
0@
b11001000 +
0?
0=
bz0000111 )
b11001000 ,
b11000111 !
b11000111 *
1.
1"
#590
0"
1$
b11000111 '
#595
05
0K
13
01
0/
1-
0I
1H
0E
0B
b11001001 +
1?
1F
0C
0@
1=
bz0000000 )
b11001001 ,
14
02
00
b11001000 !
b11001000 *
0.
1"
#600
0"
1$
b11001000 '
#605
1/
1B
0-
1@
b11001010 +
0?
0=
bz0000001 )
b11001010 ,
b11001001 !
b11001001 *
1.
1"
#610
0"
1$
b11001001 '
#615
01
0E
1/
1-
0C
1B
b11001011 +
1?
1@
1=
bz0000000 )
b11001011 ,
10
b11001010 !
b11001010 *
0.
1"
#620
0"
1$
b11001010 '
#625
11
1E
0/
1C
0B
0-
0@
b11001100 +
0?
0=
bz0000011 )
b11001100 ,
b11001011 !
b11001011 *
1.
1"
#630
0"
1$
b11001011 '
#635
05
0K
13
0I
1H
11
0/
1-
1F
1E
0B
b11001101 +
1?
1C
0@
1=
bz0000000 )
b11001101 ,
12
00
b11001100 !
b11001100 *
0.
1"
#640
0"
1$
b11001100 '
#645
1/
1B
0-
1@
b11001110 +
0?
0=
bz0000001 )
b11001110 ,
b11001101 !
b11001101 *
1.
1"
#650
0"
1$
b11001101 '
#655
05
0K
13
0I
1H
11
1F
1E
1/
1-
1C
1B
b11001111 +
1?
1@
1=
bz0000000 )
b11001111 ,
10
b11001110 !
b11001110 *
0.
1"
#660
0"
1$
b11001110 '
#665
15
1K
03
1I
0H
01
0F
0E
0/
0C
0B
0-
0@
b11010000 +
0?
0=
bz0001111 )
b11010000 ,
b11001111 !
b11001111 *
1.
1"
#670
0"
1$
b11001111 '
#675
07
0N
15
03
01
0/
1-
0L
1K
0H
0E
0B
b11010001 +
1?
1I
0F
0C
0@
1=
bz0000000 )
b11010001 ,
16
04
02
00
b11010000 !
b11010000 *
0.
1"
#680
0"
1$
b11010000 '
#685
1/
1B
0-
1@
b11010010 +
0?
0=
bz0000001 )
b11010010 ,
b11010001 !
b11010001 *
1.
1"
#690
0"
1$
b11010001 '
#695
01
0E
1/
1-
0C
1B
b11010011 +
1?
1@
1=
bz0000000 )
b11010011 ,
10
b11010010 !
b11010010 *
0.
1"
#700
0"
1$
b11010010 '
#705
11
1E
0/
1C
0B
0-
0@
b11010100 +
0?
0=
bz0000011 )
b11010100 ,
b11010011 !
b11010011 *
1.
1"
#710
0"
1$
b11010011 '
#715
03
0H
11
0/
1-
0F
1E
0B
b11010101 +
1?
1C
0@
1=
bz0000000 )
b11010101 ,
12
00
b11010100 !
b11010100 *
0.
1"
#720
0"
1$
b11010100 '
#725
1/
1B
0-
1@
b11010110 +
0?
0=
bz0000001 )
b11010110 ,
b11010101 !
b11010101 *
1.
1"
#730
0"
1$
b11010101 '
#735
03
0H
11
0F
1E
1/
1-
1C
1B
b11010111 +
1?
1@
1=
bz0000000 )
b11010111 ,
10
b11010110 !
b11010110 *
0.
1"
#740
0"
1$
b11010110 '
#745
13
1H
01
1F
0E
0/
0C
0B
0-
0@
b11011000 +
0?
0=
bz0000111 )
b11011000 ,
b11010111 !
b11010111 *
1.
1"
#750
0"
1$
b11010111 '
#755
07
0N
15
0L
1K
13
01
0/
1-
1I
1H
0E
0B
b11011001 +
1?
1F
0C
0@
1=
bz0000000 )
b11011001 ,
14
02
00
b11011000 !
b11011000 *
0.
1"
#760
0"
1$
b11011000 '
#765
1/
1B
0-
1@
b11011010 +
0?
0=
bz0000001 )
b11011010 ,
b11011001 !
b11011001 *
1.
1"
#770
0"
1$
b11011001 '
#775
01
0E
1/
1-
0C
1B
b11011011 +
1?
1@
1=
bz0000000 )
b11011011 ,
10
b11011010 !
b11011010 *
0.
1"
#780
0"
1$
b11011010 '
#785
11
1E
0/
1C
0B
0-
0@
b11011100 +
0?
0=
bz0000011 )
b11011100 ,
b11011011 !
b11011011 *
1.
1"
#790
0"
1$
b11011011 '
#795
07
0N
15
0L
1K
13
1I
1H
11
0/
1-
1F
1E
0B
b11011101 +
1?
1C
0@
1=
bz0000000 )
b11011101 ,
12
00
b11011100 !
b11011100 *
0.
1"
#800
0"
1$
b11011100 '
#805
1/
1B
0-
1@
b11011110 +
0?
0=
bz0000001 )
b11011110 ,
b11011101 !
b11011101 *
1.
1"
#810
0"
1$
b11011101 '
#815
07
0N
15
0L
1K
13
1I
1H
11
1F
1E
1/
1-
1C
1B
b11011111 +
1?
1@
1=
bz0000000 )
b11011111 ,
10
b11011110 !
b11011110 *
0.
1"
#820
0"
1$
b11011110 '
#825
17
1N
05
1L
0K
03
0I
0H
01
0F
0E
0/
0C
0B
0-
0@
b11100000 +
0?
0=
bz0011111 )
b11100000 ,
b11011111 !
b11011111 *
1.
1"
#830
0"
1$
b11011111 '
#835
1;
1T
19
1R
1Q
17
05
03
01
0/
1-
1O
1N
0K
0H
0E
0B
b11100001 +
1?
1L
0I
0F
0C
0@
1=
bz0000000 )
b11100001 ,
18
06
04
02
00
b11100000 !
b11100000 *
0.
1"
#840
0"
1$
b11100000 '
#845
1/
1B
0-
1@
b11100010 +
0?
0=
bz0000001 )
b11100010 ,
b11100001 !
b11100001 *
1.
1"
#850
0"
1$
b11100001 '
#855
01
0E
1/
1-
0C
1B
b11100011 +
1?
1@
1=
bz0000000 )
b11100011 ,
10
b11100010 !
b11100010 *
0.
1"
#860
0"
1$
b11100010 '
#865
11
1E
0/
1C
0B
0-
0@
b11100100 +
0?
0=
bz0000011 )
b11100100 ,
b11100011 !
b11100011 *
1.
1"
#870
0"
1$
b11100011 '
#875
03
0H
11
0/
1-
0F
1E
0B
b11100101 +
1?
1C
0@
1=
bz0000000 )
b11100101 ,
12
00
b11100100 !
b11100100 *
0.
1"
#880
0"
1$
b11100100 '
#885
1/
1B
0-
1@
b11100110 +
0?
0=
bz0000001 )
b11100110 ,
b11100101 !
b11100101 *
1.
1"
#890
0"
1$
b11100101 '
#895
03
0H
11
0F
1E
1/
1-
1C
1B
b11100111 +
1?
1@
1=
bz0000000 )
b11100111 ,
10
b11100110 !
b11100110 *
0.
1"
#900
0"
1$
b11100110 '
#905
13
1H
01
1F
0E
0/
0C
0B
0-
0@
b11101000 +
0?
0=
bz0000111 )
b11101000 ,
b11100111 !
b11100111 *
1.
1"
#910
0"
1$
b11100111 '
#915
05
0K
13
01
0/
1-
0I
1H
0E
0B
b11101001 +
1?
1F
0C
0@
1=
bz0000000 )
b11101001 ,
14
02
00
b11101000 !
b11101000 *
0.
1"
#920
0"
1$
b11101000 '
#925
1/
1B
0-
1@
b11101010 +
0?
0=
bz0000001 )
b11101010 ,
b11101001 !
b11101001 *
1.
1"
#930
0"
1$
b11101001 '
#935
01
0E
1/
1-
0C
1B
b11101011 +
1?
1@
1=
bz0000000 )
b11101011 ,
10
b11101010 !
b11101010 *
0.
1"
#940
0"
1$
b11101010 '
#945
11
1E
0/
1C
0B
0-
0@
b11101100 +
0?
0=
bz0000011 )
b11101100 ,
b11101011 !
b11101011 *
1.
1"
#950
0"
1$
b11101011 '
#955
05
0K
13
0I
1H
11
0/
1-
1F
1E
0B
b11101101 +
1?
1C
0@
1=
bz0000000 )
b11101101 ,
12
00
b11101100 !
b11101100 *
0.
1"
#960
0"
1$
b11101100 '
#965
1/
1B
0-
1@
b11101110 +
0?
0=
bz0000001 )
b11101110 ,
b11101101 !
b11101101 *
1.
1"
#970
0"
1$
b11101101 '
#975
05
0K
13
0I
1H
11
1F
1E
1/
1-
1C
1B
b11101111 +
1?
1@
1=
bz0000000 )
b11101111 ,
10
b11101110 !
b11101110 *
0.
1"
#980
0"
1$
b11101110 '
#985
15
1K
03
1I
0H
01
0F
0E
0/
0C
0B
0-
0@
b11110000 +
0?
0=
bz0001111 )
b11110000 ,
b11101111 !
b11101111 *
1.
1"
#990
0"
1$
b11101111 '
#995
1;
1T
19
1R
1Q
17
1O
1N
15
03
01
0/
1-
1L
1K
0H
0E
0B
b11110001 +
1?
1I
0F
0C
0@
1=
bz0000000 )
b11110001 ,
16
04
02
00
b11110000 !
b11110000 *
0.
1"
#1000
0"
1$
b11110000 '
#1005
1/
1B
0-
1@
b11110010 +
0?
0=
bz0000001 )
b11110010 ,
b11110001 !
b11110001 *
1.
1"
#1010
0"
1$
b11110001 '
#1015
01
0E
1/
1-
0C
1B
b11110011 +
1?
1@
1=
bz0000000 )
b11110011 ,
10
b11110010 !
b11110010 *
0.
1"
#1020
0"
1$
b11110010 '
#1025
11
1E
0/
1C
0B
0-
0@
b11110100 +
0?
0=
bz0000011 )
b11110100 ,
b11110011 !
b11110011 *
1.
1"
#1030
0"
1$
b11110011 '
#1035
03
0H
11
0/
1-
0F
1E
0B
b11110101 +
1?
1C
0@
1=
bz0000000 )
b11110101 ,
12
00
b11110100 !
b11110100 *
0.
1"
#1040
0"
1$
b11110100 '
#1045
1/
1B
0-
1@
b11110110 +
0?
0=
bz0000001 )
b11110110 ,
b11110101 !
b11110101 *
1.
1"
#1050
0"
1$
b11110101 '
#1055
03
0H
11
0F
1E
1/
1-
1C
1B
b11110111 +
1?
1@
1=
bz0000000 )
b11110111 ,
10
b11110110 !
b11110110 *
0.
1"
#1060
0"
1$
b11110110 '
#1065
13
1H
01
1F
0E
0/
0C
0B
0-
0@
b11111000 +
0?
0=
bz0000111 )
b11111000 ,
b11110111 !
b11110111 *
1.
1"
#1070
0"
1$
b11110111 '
#1075
1;
1T
19
1R
1Q
17
1O
1N
15
1L
1K
13
01
0/
1-
1I
1H
0E
0B
b11111001 +
1?
1F
0C
0@
1=
bz0000000 )
b11111001 ,
14
02
00
b11111000 !
b11111000 *
0.
1"
#1080
0"
1$
b11111000 '
#1085
1/
1B
0-
1@
b11111010 +
0?
0=
bz0000001 )
b11111010 ,
b11111001 !
b11111001 *
1.
1"
#1090
0"
1$
b11111001 '
#1095
01
0E
1/
1-
0C
1B
b11111011 +
1?
1@
1=
bz0000000 )
b11111011 ,
10
b11111010 !
b11111010 *
0.
1"
#1100
0"
1$
b11111010 '
#1105
11
1E
0/
1C
0B
0-
0@
b11111100 +
0?
0=
bz0000011 )
b11111100 ,
b11111011 !
b11111011 *
1.
1"
#1110
0"
1$
b11111011 '
#1115
1;
1T
19
1R
1Q
17
1O
1N
15
1L
1K
13
1I
1H
11
0/
1-
1F
1E
0B
b11111101 +
1?
1C
0@
1=
bz0000000 )
b11111101 ,
12
00
b11111100 !
b11111100 *
0.
1"
#1120
0"
1$
b11111100 '
#1125
1/
1B
0-
1@
b11111110 +
0?
0=
bz0000001 )
b11111110 ,
b11111101 !
b11111101 *
1.
1"
#1130
0"
1$
b11111101 '
#1135
1;
1T
19
1R
1Q
17
1O
1N
15
1L
1K
13
1I
1H
11
1F
1E
1/
1-
1C
1B
b11111111 +
1?
1@
1=
bz0000000 )
b11111111 ,
10
b11111110 !
b11111110 *
0.
1"
#1140
0"
1$
b11111110 '
#1145
0;
0T
09
0R
0Q
07
0O
0N
05
0L
0K
03
0I
0H
01
0F
0E
0/
0C
0B
0-
0@
b0 +
0?
0=
bz1111111 )
b0 ,
b11111111 !
b11111111 *
1.
1"
#1150
0"
1$
b11111111 '
#1155
0;
09
07
05
03
01
0/
1-
0T
0Q
0N
0K
0H
0E
0B
b1 +
1?
0R
0O
0L
0I
0F
0C
0@
1=
bz0000000 )
b1 ,
0<
0:
08
06
04
02
00
b0 !
b0 *
0.
1"
#1160
0"
1$
b0 '
#1165
1/
1B
0-
1@
b10 +
0?
0=
bz0000001 )
b10 ,
b1 !
b1 *
1.
1"
#1170
0"
1$
b1 '
#1175
01
0E
1/
1-
0C
1B
b11 +
1?
1@
1=
bz0000000 )
b11 ,
10
b10 !
b10 *
0.
1"
#1180
0"
1$
b10 '
#1185
11
1E
0/
1C
0B
0-
0@
b100 +
0?
0=
bz0000011 )
b100 ,
b11 !
b11 *
1.
1"
#1190
0"
1$
b11 '
#1195
03
0H
11
0/
1-
0F
1E
0B
b101 +
1?
1C
0@
1=
bz0000000 )
b101 ,
12
00
b100 !
b100 *
0.
1"
#1200
0"
1$
b100 '
#1205
1/
1B
0-
1@
b110 +
0?
0=
bz0000001 )
b110 ,
b101 !
b101 *
1.
1"
#1210
0"
1$
b101 '
#1215
03
0H
11
0F
1E
1/
1-
1C
1B
b111 +
1?
1@
1=
bz0000000 )
b111 ,
10
b110 !
b110 *
0.
1"
#1220
0"
1$
b110 '
#1225
13
1H
01
1F
0E
0/
0C
0B
0-
0@
b1000 +
0?
0=
bz0000111 )
b1000 ,
b111 !
b111 *
1.
1"
#1230
0"
1$
b111 '
#1235
05
0K
13
01
0/
1-
0I
1H
0E
0B
b1001 +
1?
1F
0C
0@
1=
bz0000000 )
b1001 ,
14
02
00
b1000 !
b1000 *
0.
1"
#1240
0"
1$
b1000 '
#1245
1/
1B
0-
1@
b1010 +
0?
0=
bz0000001 )
b1010 ,
b1001 !
b1001 *
1.
1"
#1250
0"
1$
b1001 '
#1255
01
0E
1/
1-
0C
1B
b1011 +
1?
1@
1=
bz0000000 )
b1011 ,
10
b1010 !
b1010 *
0.
1"
#1260
0"
1$
b1010 '
#1265
11
1E
0/
1C
0B
0-
0@
b1100 +
0?
0=
bz0000011 )
b1100 ,
b1011 !
b1011 *
1.
1"
#1270
0"
1$
b1011 '
#1275
05
0K
13
0I
1H
11
0/
1-
1F
1E
0B
b1101 +
1?
1C
0@
1=
bz0000000 )
b1101 ,
12
00
b1100 !
b1100 *
0.
1"
#1280
0"
1$
b1100 '
#1285
1/
1B
0-
1@
b1110 +
0?
0=
bz0000001 )
b1110 ,
b1101 !
b1101 *
1.
1"
#1290
0"
1$
b1101 '
#1295
05
0K
13
0I
1H
11
1F
1E
1/
1-
1C
1B
b1111 +
1?
1@
1=
bz0000000 )
b1111 ,
10
b1110 !
b1110 *
0.
1"
#1300
0"
1$
b1110 '
#1305
15
1K
03
1I
0H
01
0F
0E
0/
0C
0B
0-
0@
b10000 +
0?
0=
bz0001111 )
b10000 ,
b1111 !
b1111 *
1.
1"
#1310
0"
1$
b1111 '
#1315
07
0N
15
03
01
0/
1-
0L
1K
0H
0E
0B
b10001 +
1?
1I
0F
0C
0@
1=
bz0000000 )
b10001 ,
16
04
02
00
b10000 !
b10000 *
0.
1"
#1320
0"
1$
b10000 '
#1325
1/
1B
0-
1@
b10010 +
0?
0=
bz0000001 )
b10010 ,
b10001 !
b10001 *
1.
1"
#1330
0"
1$
b10001 '
#1335
01
0E
1/
1-
0C
1B
b10011 +
1?
1@
1=
bz0000000 )
b10011 ,
10
b10010 !
b10010 *
0.
1"
#1340
0"
1$
b10010 '
#1345
11
1E
0/
1C
0B
0-
0@
b10100 +
0?
0=
bz0000011 )
b10100 ,
b10011 !
b10011 *
1.
1"
#1350
0"
1$
b10011 '
#1355
03
0H
11
0/
1-
0F
1E
0B
b10101 +
1?
1C
0@
1=
bz0000000 )
b10101 ,
12
00
b10100 !
b10100 *
0.
1"
#1360
0"
1$
b10100 '
#1365
1/
1B
0-
1@
b10110 +
0?
0=
bz0000001 )
b10110 ,
b10101 !
b10101 *
1.
1"
#1370
0"
1$
b10101 '
#1375
03
0H
11
0F
1E
1/
1-
1C
1B
b10111 +
1?
1@
1=
bz0000000 )
b10111 ,
10
b10110 !
b10110 *
0.
1"
#1380
0"
1$
b10110 '
#1385
13
1H
01
1F
0E
0/
0C
0B
0-
0@
b11000 +
0?
0=
bz0000111 )
b11000 ,
b10111 !
b10111 *
1.
1"
#1390
0"
1$
b10111 '
#1395
07
0N
15
0L
1K
13
01
0/
1-
1I
1H
0E
0B
b11001 +
1?
1F
0C
0@
1=
bz0000000 )
b11001 ,
14
02
00
b11000 !
b11000 *
0.
1"
#1400
0"
1$
b11000 '
#1405
1/
1B
0-
1@
b11010 +
0?
0=
bz0000001 )
b11010 ,
b11001 !
b11001 *
1.
1"
#1410
0"
1$
b11001 '
#1415
01
0E
1/
1-
0C
1B
b11011 +
1?
1@
1=
bz0000000 )
b11011 ,
10
b11010 !
b11010 *
0.
1"
#1420
0"
1$
b11010 '
#1425
11
1E
0/
1C
0B
0-
0@
b11100 +
0?
0=
bz0000011 )
b11100 ,
b11011 !
b11011 *
1.
1"
#1430
0"
1$
b11011 '
#1435
07
0N
15
0L
1K
13
1I
1H
11
0/
1-
1F
1E
0B
b11101 +
1?
1C
0@
1=
bz0000000 )
b11101 ,
12
00
b11100 !
b11100 *
0.
1"
#1440
0"
1$
b11100 '
#1445
1/
1B
0-
1@
b11110 +
0?
0=
bz0000001 )
b11110 ,
b11101 !
b11101 *
1.
1"
#1450
0"
1$
b11101 '
#1455
07
0N
15
0L
1K
13
1I
1H
11
1F
1E
1/
1-
1C
1B
b11111 +
1?
1@
1=
bz0000000 )
b11111 ,
10
b11110 !
b11110 *
0.
1"
#1460
0"
1$
b11110 '
#1465
17
1N
05
1L
0K
03
0I
0H
01
0F
0E
0/
0C
0B
0-
0@
b100000 +
0?
0=
bz0011111 )
b100000 ,
b11111 !
b11111 *
1.
1"
#1470
0"
1$
b11111 '
#1475
09
0Q
17
05
03
01
0/
1-
0O
1N
0K
0H
0E
0B
b100001 +
1?
1L
0I
0F
0C
0@
1=
bz0000000 )
b100001 ,
18
06
04
02
00
b100000 !
b100000 *
0.
1"
#1480
0"
1$
b100000 '
#1485
1/
1B
0-
1@
b100010 +
0?
0=
bz0000001 )
b100010 ,
b100001 !
b100001 *
1.
1"
#1490
0"
1$
b100001 '
#1495
01
0E
1/
1-
0C
1B
b100011 +
1?
1@
1=
bz0000000 )
b100011 ,
10
b100010 !
b100010 *
0.
1"
#1500
0"
1$
b100010 '
#1505
11
1E
0/
1C
0B
0-
0@
b100100 +
0?
0=
bz0000011 )
b100100 ,
b100011 !
b100011 *
1.
1"
#1510
0"
1$
b100011 '
#1515
03
0H
11
0/
1-
0F
1E
0B
b100101 +
1?
1C
0@
1=
bz0000000 )
b100101 ,
12
00
b100100 !
b100100 *
0.
1"
#1520
0"
1$
b100100 '
#1525
1/
1B
0-
1@
b100110 +
0?
0=
bz0000001 )
b100110 ,
b100101 !
b100101 *
1.
1"
#1530
0"
1$
b100101 '
#1535
03
0H
11
0F
1E
1/
1-
1C
1B
b100111 +
1?
1@
1=
bz0000000 )
b100111 ,
10
b100110 !
b100110 *
0.
1"
#1540
0"
1$
b100110 '
#1545
13
1H
01
1F
0E
0/
0C
0B
0-
0@
b101000 +
0?
0=
bz0000111 )
b101000 ,
b100111 !
b100111 *
1.
1"
#1550
0"
1$
b100111 '
